Capstone Quiz I
…
StoneBr

Timber

Veenker

NridgHt

ames_train %>% 
  group_by(Neighborhood) %>% 
  summarise(sdev=sd(price)) %>% 
  arrange(desc(sdev))

## # A tibble: 27 x 2
##    Neighborhood    sdev
##    <fct>          <dbl>
##  1 StoneBr      123459.
##  2 NridgHt      105089.
##  3 Timber        84030.
##  4 Veenker       72545.
##  5 Crawfor       71268.
##  6 GrnHill       70711.
##  7 Somerst       65199.
##  8 Edwards       54852.
##  9 CollgCr       52786.
## 10 SawyerW       48354.
## # ... with 17 more rows
…
